{
  "error": false,
  "isNewApp":false,
  "isConsent":true,
  "app_pkg": "com.ds.bluetoothmouse.remotemouse.wifimouse.bluetoothkeyboard.bluetoothmouseandkeyboard",
  "fbBannr": "YOUR_PLACEMENT_ID",
  "fbInter": "YOUR_PLACEMENT_ID",
  "fbNative": "YOUR_PLACEMENT_ID",
  "fbNativeBnnr": "YOUR_PLACEMENT_ID",
  
  "AdmobBannr": "ca-app-pub-3144184500423402/7445464577",
  "AdmobInter": "ca-app-pub-3144184500423402/6261780388",
  "AdmobInterSplash":"",
  "AdmobNative": "ca-app-pub-3144184500423402/2116034702",
  "AdmobOpenAds": "ca-app-pub-3144184500423402/6132382907",
  
  "admob_pub_id": "pub-8295793237549637",
  "admob_app_id": "ca-app-pub-8295793237549637~1512167265",
  "adType": "admob",
  "adStatus": "admob",
  "loadMore":false,
  "forceAds": "yes",
  "Advertise_List": [
    {
     
	     "ad_id": 0,
	    "app_name": "Time Password - Lock Screen",
	    "app_packageName": "com.time.password.timepassword.lockscreen.phonelock.timelock.timepasswordlock.talt",
	    "app_logo": "https://play-lh.googleusercontent.com/aVfWFkjBLdCdn3YaEt-Qeh8zh-k3UmrWDxaUwkKl3-vsyM5xlv0FegqPVACH_bc5Ag=w240-h480",
	    "app_banner": "https://play-lh.googleusercontent.com/aUFVhsZOVJHh4B4MTARt_IU9AcHYmS_AZXpYqPI6Mhpo2x2zfQiMAgBYni5q8LJbVA=w416-h235",
        "app_shortDecription": "Are you concerned that your phone password will be known by someone? Or did you forget your phone password? The best solution for that has been provided by this application. ",
		"app_rating": "4.4",
		"app_download": "1,000",
		"app_AdFormat": "Banner",
		"app_buttonName": "Install"
	  
    }
  ],
  "adMobTime":3
}
